Marker:,Imran Khan
Total mark:,2.8 (out of 10)

Element,Mark,Comment
Is there lit. search file?,,
Filename correct?,,
Search string (SS) - general comments,,
SS syntactically correct?,0.3,
SS semantically correct?,0.0,This is not an appropriate search string.
SS appropriate?,0.0,
Reported number of papers sufficient?,0.0,"There are over 4,500 papers returned."
Reported number of papers close to IEEE value?,0.0,
Exporatory search string(s) - general comments,,
Are there alternative search string(s) (ASS)?,0.3,
ASS semantically correct?,0.6,
Evidence of learning?,0.0,
Inclusion (IC) / Exclusion criteria (EC) - general comments,,
IC understandable?,0.0,
IC appropriate?,0.0,
IC appropriately selective?,0.0,
EC understandable?,0.0,Your inclusion/exclusion should be a bullet point list of specific criteria you apply to your results.
EC appropriate?,0.0,
Do EC refine included papers?,0.0,
Sources - general comments,,
Sources stated?,0.3,
Sources appropriate?,0.3,
Presentation - general comments,,
Spelling correct?,0.0,Many spelling errors in your document.
Punctuation correct?,0.0,
Grammar correct?,0.0,
Abbreviations introduced?,0.0,
Bibliography - general comments,,
[bibliography] Separate file?,0.5,
[bibliography] Correct file format?,0.5,
Share of correctly formatted references,0.0,
